{ "expenses" : [
	
	
	{ 
		"id" : 2,
		"date" : "1970-01-01T00:16:41",
		"description" : "cashjohnGroceries2",
		"amount" : 10,
		"category" : 1
	}
	
	,
	{ 
		"id" : 3,
		"date" : "1970-01-01T00:16:42",
		"description" : "cashjohnGroceries3",
		"amount" : 10,
		"category" : 1
	}
	
	]
}
